<?xml version="1.0" encoding="UTF-8" standalone="no"?>
<svg
   xmlns="http://www.w3.org/2000/svg"
   version="1.1"
   viewBox="0 0 744.09448819 1052.3622047"
   >
  <g
     id="layer1">
    <path
       style="fill:none;fill-rule:evenodd;stroke:#000000;stroke-width:1px;stroke-linecap:butt;stroke-linejoin:miter;stroke-opacity:1"
       d="m 168.01485,235.44198 c 1.18738,141.89239 446.45639,128.23747 446.45639,-1.18739"
       id="path4831"
       />
  </g>
</svg>
